{
    "/event/checknew/(:)" : "NotificationController:getEventNotification",
    "/message/checknew/(:)": "NotificationController:getMessageNotification",
    "/event/viewnew/(:)": "NotificationController:getNewEvent",
    "/message/viewnew/(:)": "NotificationController:getNewMessage",

    "/test": "AccountController:getUserInfo",
    "/calendar":{
        "GET":"CalendarController:getAll",
        "POST":"CalendarController:retrieve"
    },
    "/calendar/modules/(:)" : "CalendarController:getModulesJson",
    "/calendar/autres/(:)" : "CalendarController:getAutresJson",
    "/calendar/rdv/(:)" : "CalendarController:getRdvJson",
    "/calendar/delete": {"POST": "CalendarController:deleteEvent"},
    "/calendar/create":{"POST":"CalendarController:createEvent"},
    "/calendar/guests": {"POST": "CalendarController:getGuest"},
    "/calendar/update":{"PUT": "CalendarController:updateEvent"},
    "/calendar/state":{"POST":"CalendarController:stateEvent"}
   

}
